{
  "databaseURL": "https://migrants-724c1.firebaseio.com",
  "credential": {
    "type": "service_account",
    "project_id": "migrants-724c1",
    "private_key_id": "9cecb06867826d8e0fb521caf2e77f5b5ba496ee",
    "private_key": "-----BEGIN PRIVATE KEY-----\nMIIEvQIBADANBgkqhkiG9w0BAQEFAASCBKcwggSjAgEAAoIBAQC+s4mD5I9J1ynn\nzXATCaSIfKYY39xxJZNHNEnUI+43mame13oTRcOlKrzsReznAUVSEL9CGPWBZ3QM\nvkJCQQWNbnJc4FqNHN8nIQSfY+50Sr62khcCiWE0+XI+NdtJmFFUusBMhncDLLiL\nKl7rHBvGpA8nC3QgmZ6dVDYJkTP+yXyLpcVhuGK4BoYuGbEagUNMab1RwmJH5Ktm\nOi/p1LCNAdPPm67m4qgvAxj8Gyj17J0jXMLsZ0BAQy6cdGj+fbBKUf6b9Q9c55jv\nEQl4GA1ZGqLZYkovVhw34Hq09CCixu83A4WCG2T2zjO+mVIypWeEJame6z6mPlQ7\nGKXjRAYrAgMBAAECggEADBidR2VvBVMFkHOCgWKiMhod+wPwGqk0f1a8vB0PVi2E\nCdRHJQPO1iIw25fP4BM/j2YKi6nDoNKsFMbYsxUmwgLYdDWy6LKFIRlCDs4q6Ot4\nz2HS3dFS/iY4bePCphdoSUSTQAdjcysaBZHJdYZR6LatU1+xnQPBgN8/kjnIn4eS\nAmZDAzCBTfGhhW2/OryfJjG5DOB8BnjIHZ2TXT5QEfrF9vfpXIu9myDKkUu7oZE4\n6Jrl+BHhWdRlz0YfHWtQLEUQOKlVeHNqJDMB2YTy4l1dA6r7a7XsTSbN/V0KWTFE\nGexl6GpFgDh4WBu/wSXP3LAxj9ZsM2+b9Cq+axvMOQKBgQD6zVFl91K8kj0uv5Gt\nmTDNexiX1N89Dyxsk31QkBq64FlSC8JqhUfXOf9pK5y3fnTU/4sf7AFIclkxeXsw\nW1ypT7Zqu4JZEGBzfL53T/aIHYGOqIjez1OqwkoCMoQhSmypb2VRgkQOdGICZuMu\niTkJkn6OiBUGGCExHAAB1KN/nwKBgQDCp1esPkWYctSk5jtdM5sbDkq6DOWNm3Lt\nsa/RcaP0jEZ4a5up9v+eOIvdgOkMNLiZaL302N8TWYmyBpaKod75VU4DumrSRVRt\nVmqV0b4Z0B7gBzgwpNaIq+W4HUFGFuntZYwbr4arZuWZcZIPaEuasgjCxwa+8ArS\ntUEAz1499QKBgQCHKlBMG9bDOi0vHJ9uZ7kdhNHkQh1t0temTHalDITbYj3BMgU9\nU0c8f01faNm1KrnccTyRn6exW68mMsppbVOrDALL0vKU/XZ9xyT/OGEtSnmgYMQj\nEKmOxdcNCBydtHaLejWokAQNpjuL/9dAJURQHFuIhV6PQkHhLa3zTp4vEQKBgFIf\nCYT4bKIpZ/79xvPGLtzWRb6CbGI2v+D6AuQI3pPwjlaFh5HITAVzc8aKeUeWAn9u\nSh2/VTWzo70AvIhWTFzCmXxHLIPzje/m8masq1f2juATC6iyEnRsmSj45q3sQtrN\n6bNQdS9g5OK8oFNxu9vS2pFaKEVrvhUxNPBjjC31AoGAMTPC7Scya+CQ71vECR0U\nxMk1lBIzRgmfFQF42rwFN0cZxITQGj5yeZWvN4B1U93zUZgwc5o6eYlSRegf24DS\nKmUIEamYvIjRvkA0X3OnlUB3t+FVUQic/7KHFU+27ROyvha1W8e9LADbMbNjKyfo\npgVfrHcXRM9U5w1UoCv+ID0=\n-----END PRIVATE KEY-----\n",
    "client_email": "firebase-adminsdk-db768@migrants-724c1.iam.gserviceaccount.com",
    "client_id": "115286837817645869979",
    "auth_uri": "https://accounts.google.com/o/oauth2/auth",
    "token_uri": "https://oauth2.googleapis.com/token",
    "auth_provider_x509_cert_url": "https://www.googleapis.com/oauth2/v1/certs",
    "client_x509_cert_url": "https://www.googleapis.com/robot/v1/metadata/x509/firebase-adminsdk-db768%40migrants-724c1.iam.gserviceaccount.com"
  }
}